<svg width="40" height="40" viewBox="0 0 40 40" fill="none" xmlns="http://www.w3.org/2000/svg">
<g clip-path="url(#clip0_3889_11330)">
<path d="M8 19.111C8 22.607 9.744 25.726 12.471 27.763V32L16.557 29.758C17.647 30.059 18.802 30.223 19.999 30.223C26.626 30.223 31.999 25.249 31.999 19.112C32 12.975 26.627 8 20 8C13.373 8 8 12.974 8 19.111H8ZM18.734 15.999L21.864 19.258L27.751 15.999L21.191 22.961L18.136 19.703L12.173 22.962L18.734 15.999Z" fill="#0C1329"/>
</g>
<defs>
<clipPath id="clip0_3889_11330">
<rect width="24" height="24" fill="white" transform="translate(8 8)"/>
</clipPath>
</defs>
</svg>
