<svg width="40" height="40" viewBox="0 0 40 40" fill="none" xmlns="http://www.w3.org/2000/svg">
<g clip-path="url(#clip0_3889_11435)">
<path d="M20.326 8C13.747 8.001 10.25 12.216 10.25 16.812C10.25 18.943 11.441 21.602 13.348 22.445C13.892 22.69 13.82 22.391 14.288 20.601C14.325 20.452 14.306 20.323 14.186 20.184C11.46 17.031 13.654 10.549 19.937 10.549C29.03 10.549 27.331 23.131 21.519 23.131C20.021 23.131 18.905 21.955 19.258 20.5C19.686 18.767 20.524 16.904 20.524 15.655C20.524 12.507 15.834 12.974 15.834 17.145C15.834 18.434 16.29 19.304 16.29 19.304C16.29 19.304 14.781 25.4 14.501 26.539C14.027 28.467 14.565 31.588 14.612 31.857C14.641 32.005 14.807 32.052 14.9 31.93C15.049 31.735 16.873 29.133 17.384 27.252C17.57 26.567 18.333 23.787 18.333 23.787C18.836 24.695 20.286 25.455 21.831 25.455C26.427 25.455 29.749 21.415 29.749 16.402C29.733 11.596 25.62 8 20.326 8V8Z" fill="#0C1329"/>
</g>
<defs>
<clipPath id="clip0_3889_11435">
<rect width="24" height="24" fill="white" transform="translate(8 8)"/>
</clipPath>
</defs>
</svg>
