<svg width="40" height="40" viewBox="0 0 40 40" fill="none" xmlns="http://www.w3.org/2000/svg">
<g clip-path="url(#clip0_3889_11397)">
<path d="M25.5069 22.3062L25.4979 22.3812C23.2989 21.2852 23.0689 21.1392 22.7849 21.5652C22.5879 21.8602 22.0139 22.5292 21.8409 22.7272C21.6659 22.9222 21.4919 22.9372 21.1949 22.8022C20.8949 22.6522 19.9319 22.3372 18.7919 21.3172C17.9039 20.5222 17.3079 19.5472 17.1319 19.2472C16.8389 18.7412 17.4519 18.6692 18.0099 17.6132C18.1099 17.4032 18.0589 17.2382 17.9849 17.0892C17.9099 16.9392 17.3129 15.4692 17.0629 14.8832C16.8229 14.2992 16.5759 14.3732 16.3909 14.3732C15.8149 14.3232 15.3939 14.3312 15.0229 14.7172C13.4089 16.4912 13.8159 18.3212 15.1969 20.2672C17.9109 23.8192 19.3569 24.4732 22.0009 25.3812C22.7149 25.6082 23.3659 25.5762 23.8809 25.5022C24.4549 25.4112 25.6479 24.7812 25.8969 24.0762C26.1519 23.3712 26.1519 22.7862 26.0769 22.6512C26.0029 22.5162 25.8069 22.4412 25.5069 22.3062Z" fill="#0C1329"/>
<path d="M28.52 11.4475C20.831 4.01448 8.106 9.40548 8.101 19.8915C8.101 21.9875 8.65 24.0315 9.696 25.8365L8 31.9985L14.335 30.3465C22.24 34.6165 31.996 28.9465 32 19.8975C32 16.7215 30.76 13.7325 28.505 11.4865L28.52 11.4475ZM30.002 19.8645C29.996 27.4975 21.617 32.2645 14.99 28.3685L14.63 28.1545L10.88 29.1295L11.885 25.4845L11.646 25.1095C7.522 18.5445 12.26 9.96448 20.072 9.96448C22.726 9.96448 25.217 10.9995 27.093 12.8745C28.968 14.7335 30.002 17.2245 30.002 19.8645Z" fill="#0C1329"/>
</g>
<defs>
<clipPath id="clip0_3889_11397">
<rect width="24" height="24" fill="white" transform="translate(8 8)"/>
</clipPath>
</defs>
</svg>
